<svg xmlns="http://www.w3.org/2000/svg" width="400" height="400" version="1.1" >
    <rect x="100" y="190" rx="30" ry="30" width="200" height="200" stroke="white" fill="transparent" stroke-width="10"/>
    <rect x="300" y="240" rx="30" ry="30" width="50" height="100" stroke="white" fill="transparent" stroke-width="10"/>
    <path d="M150,60 C100,110 200,110 150,160" stroke="white" fill="transparent" stroke-width="10"/>
    <path d="M200,60 C150,110 250,110 200,160" stroke="white" fill="transparent" stroke-width="10"/>
    <path d="M250,60 C200,110 300,110 250,160" stroke="white" fill="transparent" stroke-width="10"/>
</svg>
